dsl/out.txt
VCD info: dumpfile wave.vcd opened for output.
Time: 0, Date: x/x/x, Time: x:x:x   , Alarm: x, Timer: x
Time: 1000, Date: x/x/x, Time: x:x:x   , Alarm: 0, Timer: x
Time: 1000, Date: 1/1/2020, Time: x:x:x   , Alarm: 0, Timer: 0
Time: 2000, Date: 1/1/2020, Time: 0:0:0   , Alarm: 0, Timer: 0
Reset done at 3000
Time: 5000, Date: 1/1/2020, Time: 0:0:1   , Alarm: 0, Timer: 0
Time: 6000, Date: 31/12/2022, Time: 0:0:2   , Alarm: 0, Timer: 0
Time: 7000, Date: 31/12/2022, Time: 0:0:3   , Alarm: 0, Timer: 0
Time: 8000, Date: 31/12/2022, Time: 0:0:4   , Alarm: 0, Timer: 0
Time: 9000, Date: 31/12/2022, Time: 0:0:5   , Alarm: 0, Timer: 0
Set date to Dec 31 2022, time to 23:53:55 at 9000
Time: 10000, Date: 31/12/2022, Time: 0:0:6   , Alarm: 0, Timer: 0
Time: 11000, Date: 31/12/2022, Time: 23:53:55   , Alarm: 0, Timer: 0
Waiting for next day to start...
Time: 13000, Date: 31/12/2022, Time: 23:53:56   , Alarm: 0, Timer: 0
Time: 14000, Date: 31/12/2022, Time: 23:53:57   , Alarm: 0, Timer: 0
Time: 15000, Date: 31/12/2022, Time: 23:53:58   , Alarm: 0, Timer: 0
Time: 16000, Date: 31/12/2022, Time: 23:53:59   , Alarm: 0, Timer: 0
Time: 17000, Date: 31/12/2022, Time: 23:54:0   , Alarm: 0, Timer: 0
Time: 18000, Date: 31/12/2022, Time: 23:54:1   , Alarm: 0, Timer: 0
Time: 19000, Date: 31/12/2022, Time: 23:54:2   , Alarm: 0, Timer: 0
Time: 20000, Date: 31/12/2022, Time: 23:54:3   , Alarm: 0, Timer: 0
Time: 21000, Date: 31/12/2022, Time: 23:54:4   , Alarm: 0, Timer: 0
Time: 22000, Date: 31/12/2022, Time: 23:54:5   , Alarm: 0, Timer: 0
Time: 23000, Date: 31/12/2022, Time: 23:54:6   , Alarm: 0, Timer: 0
Time: 24000, Date: 31/12/2022, Time: 23:54:7   , Alarm: 0, Timer: 0
Time: 25000, Date: 31/12/2022, Time: 23:54:8   , Alarm: 0, Timer: 0
Time: 26000, Date: 31/12/2022, Time: 23:54:9   , Alarm: 0, Timer: 0
Time: 27000, Date: 31/12/2022, Time: 23:54:10   , Alarm: 0, Timer: 0
Time: 28000, Date: 31/12/2022, Time: 23:54:11   , Alarm: 0, Timer: 0
Time: 29000, Date: 31/12/2022, Time: 23:54:12   , Alarm: 0, Timer: 0
Time: 30000, Date: 31/12/2022, Time: 23:54:13   , Alarm: 0, Timer: 0
Time: 31000, Date: 31/12/2022, Time: 23:54:14   , Alarm: 0, Timer: 0
Time: 32000, Date: 31/12/2022, Time: 23:54:15   , Alarm: 0, Timer: 0
Time: 33000, Date: 31/12/2022, Time: 23:54:16   , Alarm: 0, Timer: 0
Time: 34000, Date: 31/12/2022, Time: 23:54:17   , Alarm: 0, Timer: 0
Time: 35000, Date: 31/12/2022, Time: 23:54:18   , Alarm: 0, Timer: 0
Time: 36000, Date: 31/12/2022, Time: 23:54:19   , Alarm: 0, Timer: 0
Time: 37000, Date: 31/12/2022, Time: 23:54:20   , Alarm: 0, Timer: 0
Time: 38000, Date: 31/12/2022, Time: 23:54:21   , Alarm: 0, Timer: 0
Time: 39000, Date: 31/12/2022, Time: 23:54:22   , Alarm: 0, Timer: 0
Time: 40000, Date: 31/12/2022, Time: 23:54:23   , Alarm: 0, Timer: 0
Time: 41000, Date: 31/12/2022, Time: 23:54:24   , Alarm: 0, Timer: 0
Time: 42000, Date: 31/12/2022, Time: 23:54:25   , Alarm: 0, Timer: 0
Time: 43000, Date: 31/12/2022, Time: 23:54:26   , Alarm: 0, Timer: 0
Time: 44000, Date: 31/12/2022, Time: 23:54:27   , Alarm: 0, Timer: 0
Time: 45000, Date: 31/12/2022, Time: 23:54:28   , Alarm: 0, Timer: 0
Time: 46000, Date: 31/12/2022, Time: 23:54:29   , Alarm: 0, Timer: 0
Time: 47000, Date: 31/12/2022, Time: 23:54:30   , Alarm: 0, Timer: 0
Time: 48000, Date: 31/12/2022, Time: 23:54:31   , Alarm: 0, Timer: 0
Time: 49000, Date: 31/12/2022, Time: 23:54:32   , Alarm: 0, Timer: 0
Time: 50000, Date: 31/12/2022, Time: 23:54:33   , Alarm: 0, Timer: 0
Time: 51000, Date: 31/12/2022, Time: 23:54:34   , Alarm: 0, Timer: 0
Time: 52000, Date: 31/12/2022, Time: 23:54:35   , Alarm: 0, Timer: 0
Time: 53000, Date: 31/12/2022, Time: 23:54:36   , Alarm: 0, Timer: 0
Time: 54000, Date: 31/12/2022, Time: 23:54:37   , Alarm: 0, Timer: 0
Time: 55000, Date: 31/12/2022, Time: 23:54:38   , Alarm: 0, Timer: 0
Time: 56000, Date: 31/12/2022, Time: 23:54:39   , Alarm: 0, Timer: 0
Time: 57000, Date: 31/12/2022, Time: 23:54:40   , Alarm: 0, Timer: 0
Time: 58000, Date: 31/12/2022, Time: 23:54:41   , Alarm: 0, Timer: 0
Time: 59000, Date: 31/12/2022, Time: 23:54:42   , Alarm: 0, Timer: 0
Time: 60000, Date: 31/12/2022, Time: 23:54:43   , Alarm: 0, Timer: 0
Time: 61000, Date: 31/12/2022, Time: 23:54:44   , Alarm: 0, Timer: 0
Time: 62000, Date: 31/12/2022, Time: 23:54:45   , Alarm: 0, Timer: 0
Time: 63000, Date: 31/12/2022, Time: 23:54:46   , Alarm: 0, Timer: 0
Time: 64000, Date: 31/12/2022, Time: 23:54:47   , Alarm: 0, Timer: 0
Time: 65000, Date: 31/12/2022, Time: 23:54:48   , Alarm: 0, Timer: 0
Time: 66000, Date: 31/12/2022, Time: 23:54:49   , Alarm: 0, Timer: 0
Time: 67000, Date: 31/12/2022, Time: 23:54:50   , Alarm: 0, Timer: 0
Time: 68000, Date: 31/12/2022, Time: 23:54:51   , Alarm: 0, Timer: 0
Time: 69000, Date: 31/12/2022, Time: 23:54:52   , Alarm: 0, Timer: 0
Time: 70000, Date: 31/12/2022, Time: 23:54:53   , Alarm: 0, Timer: 0
Time: 71000, Date: 31/12/2022, Time: 23:54:54   , Alarm: 0, Timer: 0
Time: 72000, Date: 31/12/2022, Time: 23:54:55   , Alarm: 0, Timer: 0
Time: 73000, Date: 31/12/2022, Time: 23:54:56   , Alarm: 0, Timer: 0
Time: 74000, Date: 31/12/2022, Time: 23:54:57   , Alarm: 0, Timer: 0
Time: 75000, Date: 31/12/2022, Time: 23:54:58   , Alarm: 0, Timer: 0
Time: 76000, Date: 31/12/2022, Time: 23:54:59   , Alarm: 0, Timer: 0
Time: 77000, Date: 31/12/2022, Time: 23:55:0   , Alarm: 0, Timer: 0
Time: 78000, Date: 31/12/2022, Time: 23:55:1   , Alarm: 0, Timer: 0
Time: 79000, Date: 31/12/2022, Time: 23:55:2   , Alarm: 0, Timer: 0
Time: 80000, Date: 31/12/2022, Time: 23:55:3   , Alarm: 0, Timer: 0
Time: 81000, Date: 31/12/2022, Time: 23:55:4   , Alarm: 0, Timer: 0
Time: 82000, Date: 31/12/2022, Time: 23:55:5   , Alarm: 0, Timer: 0
Time: 83000, Date: 31/12/2022, Time: 23:55:6   , Alarm: 0, Timer: 0
Time: 84000, Date: 31/12/2022, Time: 23:55:7   , Alarm: 0, Timer: 0
Time: 85000, Date: 31/12/2022, Time: 23:55:8   , Alarm: 0, Timer: 0
Time: 86000, Date: 31/12/2022, Time: 23:55:9   , Alarm: 0, Timer: 0
Time: 87000, Date: 31/12/2022, Time: 23:55:10   , Alarm: 0, Timer: 0
Time: 88000, Date: 31/12/2022, Time: 23:55:11   , Alarm: 0, Timer: 0
Time: 89000, Date: 31/12/2022, Time: 23:55:12   , Alarm: 0, Timer: 0
Time: 90000, Date: 31/12/2022, Time: 23:55:13   , Alarm: 0, Timer: 0
Time: 91000, Date: 31/12/2022, Time: 23:55:14   , Alarm: 0, Timer: 0
Time: 92000, Date: 31/12/2022, Time: 23:55:15   , Alarm: 0, Timer: 0
Time: 93000, Date: 31/12/2022, Time: 23:55:16   , Alarm: 0, Timer: 0
Time: 94000, Date: 31/12/2022, Time: 23:55:17   , Alarm: 0, Timer: 0
Time: 95000, Date: 31/12/2022, Time: 23:55:18   , Alarm: 0, Timer: 0
Time: 96000, Date: 31/12/2022, Time: 23:55:19   , Alarm: 0, Timer: 0
Time: 97000, Date: 31/12/2022, Time: 23:55:20   , Alarm: 0, Timer: 0
Time: 98000, Date: 31/12/2022, Time: 23:55:21   , Alarm: 0, Timer: 0
Time: 99000, Date: 31/12/2022, Time: 23:55:22   , Alarm: 0, Timer: 0
Time: 100000, Date: 31/12/2022, Time: 23:55:23   , Alarm: 0, Timer: 0
Time: 101000, Date: 31/12/2022, Time: 23:55:24   , Alarm: 0, Timer: 0
Time: 102000, Date: 31/12/2022, Time: 23:55:25   , Alarm: 0, Timer: 0
Time: 103000, Date: 31/12/2022, Time: 23:55:26   , Alarm: 0, Timer: 0
Time: 104000, Date: 31/12/2022, Time: 23:55:27   , Alarm: 0, Timer: 0
Time: 105000, Date: 31/12/2022, Time: 23:55:28   , Alarm: 0, Timer: 0
Time: 106000, Date: 31/12/2022, Time: 23:55:29   , Alarm: 0, Timer: 0
Time: 107000, Date: 31/12/2022, Time: 23:55:30   , Alarm: 0, Timer: 0
Time: 108000, Date: 31/12/2022, Time: 23:55:31   , Alarm: 0, Timer: 0
Time: 109000, Date: 31/12/2022, Time: 23:55:32   , Alarm: 0, Timer: 0
Time: 110000, Date: 31/12/2022, Time: 23:55:33   , Alarm: 0, Timer: 0
Time: 111000, Date: 31/12/2022, Time: 23:55:34   , Alarm: 0, Timer: 0
Time: 112000, Date: 31/12/2022, Time: 23:55:35   , Alarm: 0, Timer: 0
Time: 113000, Date: 31/12/2022, Time: 23:55:36   , Alarm: 0, Timer: 0
Time: 114000, Date: 31/12/2022, Time: 23:55:37   , Alarm: 0, Timer: 0
Time: 115000, Date: 31/12/2022, Time: 23:55:38   , Alarm: 0, Timer: 0
Time: 116000, Date: 31/12/2022, Time: 23:55:39   , Alarm: 0, Timer: 0
Time: 117000, Date: 31/12/2022, Time: 23:55:40   , Alarm: 0, Timer: 0
Time: 118000, Date: 31/12/2022, Time: 23:55:41   , Alarm: 0, Timer: 0
Time: 119000, Date: 31/12/2022, Time: 23:55:42   , Alarm: 0, Timer: 0
Time: 120000, Date: 31/12/2022, Time: 23:55:43   , Alarm: 0, Timer: 0
Time: 121000, Date: 31/12/2022, Time: 23:55:44   , Alarm: 0, Timer: 0
Time: 122000, Date: 31/12/2022, Time: 23:55:45   , Alarm: 0, Timer: 0
Time: 123000, Date: 31/12/2022, Time: 23:55:46   , Alarm: 0, Timer: 0
Time: 124000, Date: 31/12/2022, Time: 23:55:47   , Alarm: 0, Timer: 0
Time: 125000, Date: 31/12/2022, Time: 23:55:48   , Alarm: 0, Timer: 0
Time: 126000, Date: 31/12/2022, Time: 23:55:49   , Alarm: 0, Timer: 0
Time: 127000, Date: 31/12/2022, Time: 23:55:50   , Alarm: 0, Timer: 0
Time: 128000, Date: 31/12/2022, Time: 23:55:51   , Alarm: 0, Timer: 0
Time: 129000, Date: 31/12/2022, Time: 23:55:52   , Alarm: 0, Timer: 0
Time: 130000, Date: 31/12/2022, Time: 23:55:53   , Alarm: 0, Timer: 0
Time: 131000, Date: 31/12/2022, Time: 23:55:54   , Alarm: 0, Timer: 0
Time: 132000, Date: 31/12/2022, Time: 23:55:55   , Alarm: 0, Timer: 0
Time: 133000, Date: 31/12/2022, Time: 23:55:56   , Alarm: 0, Timer: 0
Time: 134000, Date: 31/12/2022, Time: 23:55:57   , Alarm: 0, Timer: 0
Time: 135000, Date: 31/12/2022, Time: 23:55:58   , Alarm: 0, Timer: 0
Time: 136000, Date: 31/12/2022, Time: 23:55:59   , Alarm: 0, Timer: 0
Time: 137000, Date: 31/12/2022, Time: 23:56:0   , Alarm: 0, Timer: 0
Time: 138000, Date: 31/12/2022, Time: 23:56:1   , Alarm: 0, Timer: 0
Time: 139000, Date: 31/12/2022, Time: 23:56:2   , Alarm: 0, Timer: 0
Time: 140000, Date: 31/12/2022, Time: 23:56:3   , Alarm: 0, Timer: 0
Time: 141000, Date: 31/12/2022, Time: 23:56:4   , Alarm: 0, Timer: 0
Time: 142000, Date: 31/12/2022, Time: 23:56:5   , Alarm: 0, Timer: 0
Time: 143000, Date: 31/12/2022, Time: 23:56:6   , Alarm: 0, Timer: 0
Time: 144000, Date: 31/12/2022, Time: 23:56:7   , Alarm: 0, Timer: 0
Time: 145000, Date: 31/12/2022, Time: 23:56:8   , Alarm: 0, Timer: 0
Time: 146000, Date: 31/12/2022, Time: 23:56:9   , Alarm: 0, Timer: 0
Time: 147000, Date: 31/12/2022, Time: 23:56:10   , Alarm: 0, Timer: 0
Time: 148000, Date: 31/12/2022, Time: 23:56:11   , Alarm: 0, Timer: 0
Time: 149000, Date: 31/12/2022, Time: 23:56:12   , Alarm: 0, Timer: 0
Time: 150000, Date: 31/12/2022, Time: 23:56:13   , Alarm: 0, Timer: 0
Time: 151000, Date: 31/12/2022, Time: 23:56:14   , Alarm: 0, Timer: 0
Time: 152000, Date: 31/12/2022, Time: 23:56:15   , Alarm: 0, Timer: 0
Time: 153000, Date: 31/12/2022, Time: 23:56:16   , Alarm: 0, Timer: 0
Time: 154000, Date: 31/12/2022, Time: 23:56:17   , Alarm: 0, Timer: 0
Time: 155000, Date: 31/12/2022, Time: 23:56:18   , Alarm: 0, Timer: 0
Time: 156000, Date: 31/12/2022, Time: 23:56:19   , Alarm: 0, Timer: 0
Time: 157000, Date: 31/12/2022, Time: 23:56:20   , Alarm: 0, Timer: 0
Time: 158000, Date: 31/12/2022, Time: 23:56:21   , Alarm: 0, Timer: 0
Time: 159000, Date: 31/12/2022, Time: 23:56:22   , Alarm: 0, Timer: 0
Time: 160000, Date: 31/12/2022, Time: 23:56:23   , Alarm: 0, Timer: 0
Time: 161000, Date: 31/12/2022, Time: 23:56:24   , Alarm: 0, Timer: 0
Time: 162000, Date: 31/12/2022, Time: 23:56:25   , Alarm: 0, Timer: 0
Time: 163000, Date: 31/12/2022, Time: 23:56:26   , Alarm: 0, Timer: 0
Time: 164000, Date: 31/12/2022, Time: 23:56:27   , Alarm: 0, Timer: 0
Time: 165000, Date: 31/12/2022, Time: 23:56:28   , Alarm: 0, Timer: 0
Time: 166000, Date: 31/12/2022, Time: 23:56:29   , Alarm: 0, Timer: 0
Time: 167000, Date: 31/12/2022, Time: 23:56:30   , Alarm: 0, Timer: 0
Time: 168000, Date: 31/12/2022, Time: 23:56:31   , Alarm: 0, Timer: 0
Time: 169000, Date: 31/12/2022, Time: 23:56:32   , Alarm: 0, Timer: 0
Time: 170000, Date: 31/12/2022, Time: 23:56:33   , Alarm: 0, Timer: 0
Time: 171000, Date: 31/12/2022, Time: 23:56:34   , Alarm: 0, Timer: 0
Time: 172000, Date: 31/12/2022, Time: 23:56:35   , Alarm: 0, Timer: 0
Time: 173000, Date: 31/12/2022, Time: 23:56:36   , Alarm: 0, Timer: 0
Time: 174000, Date: 31/12/2022, Time: 23:56:37   , Alarm: 0, Timer: 0
Time: 175000, Date: 31/12/2022, Time: 23:56:38   , Alarm: 0, Timer: 0
Time: 176000, Date: 31/12/2022, Time: 23:56:39   , Alarm: 0, Timer: 0
Time: 177000, Date: 31/12/2022, Time: 23:56:40   , Alarm: 0, Timer: 0
Time: 178000, Date: 31/12/2022, Time: 23:56:41   , Alarm: 0, Timer: 0
Time: 179000, Date: 31/12/2022, Time: 23:56:42   , Alarm: 0, Timer: 0
Time: 180000, Date: 31/12/2022, Time: 23:56:43   , Alarm: 0, Timer: 0
Time: 181000, Date: 31/12/2022, Time: 23:56:44   , Alarm: 0, Timer: 0
Time: 182000, Date: 31/12/2022, Time: 23:56:45   , Alarm: 0, Timer: 0
Time: 183000, Date: 31/12/2022, Time: 23:56:46   , Alarm: 0, Timer: 0
Time: 184000, Date: 31/12/2022, Time: 23:56:47   , Alarm: 0, Timer: 0
Time: 185000, Date: 31/12/2022, Time: 23:56:48   , Alarm: 0, Timer: 0
Time: 186000, Date: 31/12/2022, Time: 23:56:49   , Alarm: 0, Timer: 0
Time: 187000, Date: 31/12/2022, Time: 23:56:50   , Alarm: 0, Timer: 0
Time: 188000, Date: 31/12/2022, Time: 23:56:51   , Alarm: 0, Timer: 0
Time: 189000, Date: 31/12/2022, Time: 23:56:52   , Alarm: 0, Timer: 0
Time: 190000, Date: 31/12/2022, Time: 23:56:53   , Alarm: 0, Timer: 0
Time: 191000, Date: 31/12/2022, Time: 23:56:54   , Alarm: 0, Timer: 0
Time: 192000, Date: 31/12/2022, Time: 23:56:55   , Alarm: 0, Timer: 0
Time: 193000, Date: 31/12/2022, Time: 23:56:56   , Alarm: 0, Timer: 0
Time: 194000, Date: 31/12/2022, Time: 23:56:57   , Alarm: 0, Timer: 0
Time: 195000, Date: 31/12/2022, Time: 23:56:58   , Alarm: 0, Timer: 0
Time: 196000, Date: 31/12/2022, Time: 23:56:59   , Alarm: 0, Timer: 0
Time: 197000, Date: 31/12/2022, Time: 23:57:0   , Alarm: 0, Timer: 0
Time: 198000, Date: 31/12/2022, Time: 23:57:1   , Alarm: 0, Timer: 0
Time: 199000, Date: 31/12/2022, Time: 23:57:2   , Alarm: 0, Timer: 0
Time: 200000, Date: 31/12/2022, Time: 23:57:3   , Alarm: 0, Timer: 0
Time: 201000, Date: 31/12/2022, Time: 23:57:4   , Alarm: 0, Timer: 0
Time: 202000, Date: 31/12/2022, Time: 23:57:5   , Alarm: 0, Timer: 0
Time: 203000, Date: 31/12/2022, Time: 23:57:6   , Alarm: 0, Timer: 0
Time: 204000, Date: 31/12/2022, Time: 23:57:7   , Alarm: 0, Timer: 0
Time: 205000, Date: 31/12/2022, Time: 23:57:8   , Alarm: 0, Timer: 0
Time: 206000, Date: 31/12/2022, Time: 23:57:9   , Alarm: 0, Timer: 0
Time: 207000, Date: 31/12/2022, Time: 23:57:10   , Alarm: 0, Timer: 0
Time: 208000, Date: 31/12/2022, Time: 23:57:11   , Alarm: 0, Timer: 0
Time: 209000, Date: 31/12/2022, Time: 23:57:12   , Alarm: 0, Timer: 0
Time: 210000, Date: 31/12/2022, Time: 23:57:13   , Alarm: 0, Timer: 0
Time: 211000, Date: 31/12/2022, Time: 23:57:14   , Alarm: 0, Timer: 0
Time: 212000, Date: 31/12/2022, Time: 23:57:15   , Alarm: 0, Timer: 0
Time: 213000, Date: 31/12/2022, Time: 23:57:16   , Alarm: 0, Timer: 0
Time: 214000, Date: 31/12/2022, Time: 23:57:17   , Alarm: 0, Timer: 0
Time: 215000, Date: 31/12/2022, Time: 23:57:18   , Alarm: 0, Timer: 0
Time: 216000, Date: 31/12/2022, Time: 23:57:19   , Alarm: 0, Timer: 0
Time: 217000, Date: 31/12/2022, Time: 23:57:20   , Alarm: 0, Timer: 0
Time: 218000, Date: 31/12/2022, Time: 23:57:21   , Alarm: 0, Timer: 0
Time: 219000, Date: 31/12/2022, Time: 23:57:22   , Alarm: 0, Timer: 0
Time: 220000, Date: 31/12/2022, Time: 23:57:23   , Alarm: 0, Timer: 0
Time: 221000, Date: 31/12/2022, Time: 23:57:24   , Alarm: 0, Timer: 0
Time: 222000, Date: 31/12/2022, Time: 23:57:25   , Alarm: 0, Timer: 0
Time: 223000, Date: 31/12/2022, Time: 23:57:26   , Alarm: 0, Timer: 0
Time: 224000, Date: 31/12/2022, Time: 23:57:27   , Alarm: 0, Timer: 0
Time: 225000, Date: 31/12/2022, Time: 23:57:28   , Alarm: 0, Timer: 0
Time: 226000, Date: 31/12/2022, Time: 23:57:29   , Alarm: 0, Timer: 0
Time: 227000, Date: 31/12/2022, Time: 23:57:30   , Alarm: 0, Timer: 0
Time: 228000, Date: 31/12/2022, Time: 23:57:31   , Alarm: 0, Timer: 0
Time: 229000, Date: 31/12/2022, Time: 23:57:32   , Alarm: 0, Timer: 0
Time: 230000, Date: 31/12/2022, Time: 23:57:33   , Alarm: 0, Timer: 0
Time: 231000, Date: 31/12/2022, Time: 23:57:34   , Alarm: 0, Timer: 0
Time: 232000, Date: 31/12/2022, Time: 23:57:35   , Alarm: 0, Timer: 0
Time: 233000, Date: 31/12/2022, Time: 23:57:36   , Alarm: 0, Timer: 0
Time: 234000, Date: 31/12/2022, Time: 23:57:37   , Alarm: 0, Timer: 0
Time: 235000, Date: 31/12/2022, Time: 23:57:38   , Alarm: 0, Timer: 0
Time: 236000, Date: 31/12/2022, Time: 23:57:39   , Alarm: 0, Timer: 0
Time: 237000, Date: 31/12/2022, Time: 23:57:40   , Alarm: 0, Timer: 0
Time: 238000, Date: 31/12/2022, Time: 23:57:41   , Alarm: 0, Timer: 0
Time: 239000, Date: 31/12/2022, Time: 23:57:42   , Alarm: 0, Timer: 0
Time: 240000, Date: 31/12/2022, Time: 23:57:43   , Alarm: 0, Timer: 0
Time: 241000, Date: 31/12/2022, Time: 23:57:44   , Alarm: 0, Timer: 0
Time: 242000, Date: 31/12/2022, Time: 23:57:45   , Alarm: 0, Timer: 0
Time: 243000, Date: 31/12/2022, Time: 23:57:46   , Alarm: 0, Timer: 0
Time: 244000, Date: 31/12/2022, Time: 23:57:47   , Alarm: 0, Timer: 0
Time: 245000, Date: 31/12/2022, Time: 23:57:48   , Alarm: 0, Timer: 0
Time: 246000, Date: 31/12/2022, Time: 23:57:49   , Alarm: 0, Timer: 0
Time: 247000, Date: 31/12/2022, Time: 23:57:50   , Alarm: 0, Timer: 0
Time: 248000, Date: 31/12/2022, Time: 23:57:51   , Alarm: 0, Timer: 0
Time: 249000, Date: 31/12/2022, Time: 23:57:52   , Alarm: 0, Timer: 0
Time: 250000, Date: 31/12/2022, Time: 23:57:53   , Alarm: 0, Timer: 0
Time: 251000, Date: 31/12/2022, Time: 23:57:54   , Alarm: 0, Timer: 0
Time: 252000, Date: 31/12/2022, Time: 23:57:55   , Alarm: 0, Timer: 0
Time: 253000, Date: 31/12/2022, Time: 23:57:56   , Alarm: 0, Timer: 0
Time: 254000, Date: 31/12/2022, Time: 23:57:57   , Alarm: 0, Timer: 0
Time: 255000, Date: 31/12/2022, Time: 23:57:58   , Alarm: 0, Timer: 0
Time: 256000, Date: 31/12/2022, Time: 23:57:59   , Alarm: 0, Timer: 0
Time: 257000, Date: 31/12/2022, Time: 23:58:0   , Alarm: 0, Timer: 0
Time: 258000, Date: 31/12/2022, Time: 23:58:1   , Alarm: 0, Timer: 0
Time: 259000, Date: 31/12/2022, Time: 23:58:2   , Alarm: 0, Timer: 0
Time: 260000, Date: 31/12/2022, Time: 23:58:3   , Alarm: 0, Timer: 0
Time: 261000, Date: 31/12/2022, Time: 23:58:4   , Alarm: 0, Timer: 0
Time: 262000, Date: 31/12/2022, Time: 23:58:5   , Alarm: 0, Timer: 0
Time: 263000, Date: 31/12/2022, Time: 23:58:6   , Alarm: 0, Timer: 0
Time: 264000, Date: 31/12/2022, Time: 23:58:7   , Alarm: 0, Timer: 0
Time: 265000, Date: 31/12/2022, Time: 23:58:8   , Alarm: 0, Timer: 0
Time: 266000, Date: 31/12/2022, Time: 23:58:9   , Alarm: 0, Timer: 0
Time: 267000, Date: 31/12/2022, Time: 23:58:10   , Alarm: 0, Timer: 0
Time: 268000, Date: 31/12/2022, Time: 23:58:11   , Alarm: 0, Timer: 0
Time: 269000, Date: 31/12/2022, Time: 23:58:12   , Alarm: 0, Timer: 0
Time: 270000, Date: 31/12/2022, Time: 23:58:13   , Alarm: 0, Timer: 0
Time: 271000, Date: 31/12/2022, Time: 23:58:14   , Alarm: 0, Timer: 0
Time: 272000, Date: 31/12/2022, Time: 23:58:15   , Alarm: 0, Timer: 0
Time: 273000, Date: 31/12/2022, Time: 23:58:16   , Alarm: 0, Timer: 0
Time: 274000, Date: 31/12/2022, Time: 23:58:17   , Alarm: 0, Timer: 0
Time: 275000, Date: 31/12/2022, Time: 23:58:18   , Alarm: 0, Timer: 0
Time: 276000, Date: 31/12/2022, Time: 23:58:19   , Alarm: 0, Timer: 0
Time: 277000, Date: 31/12/2022, Time: 23:58:20   , Alarm: 0, Timer: 0
Time: 278000, Date: 31/12/2022, Time: 23:58:21   , Alarm: 0, Timer: 0
Time: 279000, Date: 31/12/2022, Time: 23:58:22   , Alarm: 0, Timer: 0
Time: 280000, Date: 31/12/2022, Time: 23:58:23   , Alarm: 0, Timer: 0
Time: 281000, Date: 31/12/2022, Time: 23:58:24   , Alarm: 0, Timer: 0
Time: 282000, Date: 31/12/2022, Time: 23:58:25   , Alarm: 0, Timer: 0
Time: 283000, Date: 31/12/2022, Time: 23:58:26   , Alarm: 0, Timer: 0
Time: 284000, Date: 31/12/2022, Time: 23:58:27   , Alarm: 0, Timer: 0
Time: 285000, Date: 31/12/2022, Time: 23:58:28   , Alarm: 0, Timer: 0
Time: 286000, Date: 31/12/2022, Time: 23:58:29   , Alarm: 0, Timer: 0
Time: 287000, Date: 31/12/2022, Time: 23:58:30   , Alarm: 0, Timer: 0
Time: 288000, Date: 31/12/2022, Time: 23:58:31   , Alarm: 0, Timer: 0
Time: 289000, Date: 31/12/2022, Time: 23:58:32   , Alarm: 0, Timer: 0
Time: 290000, Date: 31/12/2022, Time: 23:58:33   , Alarm: 0, Timer: 0
Time: 291000, Date: 31/12/2022, Time: 23:58:34   , Alarm: 0, Timer: 0
Time: 292000, Date: 31/12/2022, Time: 23:58:35   , Alarm: 0, Timer: 0
Time: 293000, Date: 31/12/2022, Time: 23:58:36   , Alarm: 0, Timer: 0
Time: 294000, Date: 31/12/2022, Time: 23:58:37   , Alarm: 0, Timer: 0
Time: 295000, Date: 31/12/2022, Time: 23:58:38   , Alarm: 0, Timer: 0
Time: 296000, Date: 31/12/2022, Time: 23:58:39   , Alarm: 0, Timer: 0
Time: 297000, Date: 31/12/2022, Time: 23:58:40   , Alarm: 0, Timer: 0
Time: 298000, Date: 31/12/2022, Time: 23:58:41   , Alarm: 0, Timer: 0
Time: 299000, Date: 31/12/2022, Time: 23:58:42   , Alarm: 0, Timer: 0
Time: 300000, Date: 31/12/2022, Time: 23:58:43   , Alarm: 0, Timer: 0
Time: 301000, Date: 31/12/2022, Time: 23:58:44   , Alarm: 0, Timer: 0
Time: 302000, Date: 31/12/2022, Time: 23:58:45   , Alarm: 0, Timer: 0
Time: 303000, Date: 31/12/2022, Time: 23:58:46   , Alarm: 0, Timer: 0
Time: 304000, Date: 31/12/2022, Time: 23:58:47   , Alarm: 0, Timer: 0
Time: 305000, Date: 31/12/2022, Time: 23:58:48   , Alarm: 0, Timer: 0
Time: 306000, Date: 31/12/2022, Time: 23:58:49   , Alarm: 0, Timer: 0
Time: 307000, Date: 31/12/2022, Time: 23:58:50   , Alarm: 0, Timer: 0
Time: 308000, Date: 31/12/2022, Time: 23:58:51   , Alarm: 0, Timer: 0
Time: 309000, Date: 31/12/2022, Time: 23:58:52   , Alarm: 0, Timer: 0
Time: 310000, Date: 31/12/2022, Time: 23:58:53   , Alarm: 0, Timer: 0
Time: 311000, Date: 31/12/2022, Time: 23:58:54   , Alarm: 0, Timer: 0
Time: 312000, Date: 31/12/2022, Time: 23:58:55   , Alarm: 0, Timer: 0
Time: 313000, Date: 31/12/2022, Time: 23:58:56   , Alarm: 0, Timer: 0
Time: 314000, Date: 31/12/2022, Time: 23:58:57   , Alarm: 0, Timer: 0
Time: 315000, Date: 31/12/2022, Time: 23:58:58   , Alarm: 0, Timer: 0
Time: 316000, Date: 31/12/2022, Time: 23:58:59   , Alarm: 0, Timer: 0
Time: 317000, Date: 31/12/2022, Time: 23:59:0   , Alarm: 0, Timer: 0
Time: 318000, Date: 31/12/2022, Time: 23:59:1   , Alarm: 0, Timer: 0
Time: 319000, Date: 31/12/2022, Time: 23:59:2   , Alarm: 0, Timer: 0
Time: 320000, Date: 31/12/2022, Time: 23:59:3   , Alarm: 0, Timer: 0
Time: 321000, Date: 31/12/2022, Time: 23:59:4   , Alarm: 0, Timer: 0
Time: 322000, Date: 31/12/2022, Time: 23:59:5   , Alarm: 0, Timer: 0
Time: 323000, Date: 31/12/2022, Time: 23:59:6   , Alarm: 0, Timer: 0
Time: 324000, Date: 31/12/2022, Time: 23:59:7   , Alarm: 0, Timer: 0
Time: 325000, Date: 31/12/2022, Time: 23:59:8   , Alarm: 0, Timer: 0
Time: 326000, Date: 31/12/2022, Time: 23:59:9   , Alarm: 0, Timer: 0
Time: 327000, Date: 31/12/2022, Time: 23:59:10   , Alarm: 0, Timer: 0
Time: 328000, Date: 31/12/2022, Time: 23:59:11   , Alarm: 0, Timer: 0
Time: 329000, Date: 31/12/2022, Time: 23:59:12   , Alarm: 0, Timer: 0
Time: 330000, Date: 31/12/2022, Time: 23:59:13   , Alarm: 0, Timer: 0
Time: 331000, Date: 31/12/2022, Time: 23:59:14   , Alarm: 0, Timer: 0
Time: 332000, Date: 31/12/2022, Time: 23:59:15   , Alarm: 0, Timer: 0
Time: 333000, Date: 31/12/2022, Time: 23:59:16   , Alarm: 0, Timer: 0
Time: 334000, Date: 31/12/2022, Time: 23:59:17   , Alarm: 0, Timer: 0
Time: 335000, Date: 31/12/2022, Time: 23:59:18   , Alarm: 0, Timer: 0
Time: 336000, Date: 31/12/2022, Time: 23:59:19   , Alarm: 0, Timer: 0
Time: 337000, Date: 31/12/2022, Time: 23:59:20   , Alarm: 0, Timer: 0
Time: 338000, Date: 31/12/2022, Time: 23:59:21   , Alarm: 0, Timer: 0
Time: 339000, Date: 31/12/2022, Time: 23:59:22   , Alarm: 0, Timer: 0
Time: 340000, Date: 31/12/2022, Time: 23:59:23   , Alarm: 0, Timer: 0
